…
get ranking of bottlecount as per brand name

tz_data %>% group_by(brand_name) %>% summarise(total = sum(bottle_count)) %>% arrange(desc(total))
## # A tibble: 67 x 2
##    brand_name       total
##    <chr>            <dbl>
##  1 Mo                 346
##  2 Azam               250
##  3 Uhai               210
##  4 Hill Water         131
##  5 Afya               124
##  6 Sayona             107
##  7 Kilimanjaro        106
##  8 Dew Drop            87
##  9 Leader's Ananasi    80
## 10 Super Burudani      80
## # ... with 57 more rows

get ranking of bottle count as per product label

tz_data %>% group_by(product_label) %>% summarise(total = sum(bottle_count)) %>% arrange(desc(total))
## # A tibble: 101 x 2
##    product_label                            total
##    <chr>                                    <dbl>
##  1 Pure Drinking Water                        467
##  2 Drinking Water                             126
##  3 Xtra Carbonated Drink                       92
##  4 Drinking water                              82
##  5 Extra Berry Flavor Carbonated Soft Drink    81
##  6 Fortified Wine                              80
##  7 Gin                                         80
##  8 Energy drink                                78
##  9 Coke                                        63
## 10 Fanta Orange                                49
## # ... with 91 more rows
…
