…
tz_data %>%
  group_by(brand_name) %>%
  summarise(total = sum(bottle_count)) %>%
  arrange(desc(total))
## # A tibble: 93 × 2
##    brand_name       total
##    <fct>            <dbl>
##  1 Mo                9019
##  2 Azam              4291
##  3 Uhai              3930
##  4 Afya              3106
##  5 Leader's Ananasi  2090
##  6 Hill Water        2083
##  7 Sayona            1192
##  8 Pepsi             1038
##  9 Kilimanjaro        957
## 10 Double Kick        873
## # … with 83 more rows
…
