Popular Pollutants of The Public 🚮 | Peter Boshe
…
## # A tibble: 10 × 2
##    manufacturer_country total_bottles
##    <fct>                        <dbl>
##  1 TZ                           30928
##  2 US                            4616
##  3 UK                            1613
##  4 ZA                             267
##  5 BE                             250
##  6 AE                             162
##  7 KE                             158
##  8 NL                             146
##  9 MZ                             130
## 10 MT                              90
## # A tibble: 93 × 2
##    brand_name       total
##    <fct>            <dbl>
##  1 Mo                9019
##  2 Azam              4291
##  3 Uhai              3930
##  4 Afya              3106
##  5 Leader's Ananasi  2090
##  6 Hill Water        2083
##  7 Sayona            1192
##  8 Pepsi             1038
##  9 Kilimanjaro        957
## 10 Double Kick        873
## # … with 83 more rows
…
